call_number,call_date,call_type_number
42470109,2004-09-03,4
2600017,2000-09-16,3
2350070,2000-08-22,3
3310067,2000-11-26,3
42450332,2004-09-01,13
2500340,2000-09-06,3
1960006,2000-07-14,4
3610387,2000-12-26,3
42880311,2004-10-14,5
2650299,2000-09-21,3
1140018,2000-04-23,3
42510203,2004-09-07,9
160500504,2016-02-19,11
132810047,2013-10-08,12
1340142,2000-05-13,3
2090194,2000-07-27,3
3160102,2000-11-11,3
2900191,2000-10-16,3
2410081,2000-08-28,3
43000082,2004-10-26,6
100820201,2010-03-23,4
3400360,2000-12-05,3
2200208,2000-08-07,3
3160170,2000-11-11,3
3210288,2000-11-16,3
42670028,2004-09-23,4
1410250,2000-05-20,3
10050310,2001-01-05,3
1150021,2000-04-24,3
42390409,2004-08-26,4
42390291,2004-08-26,13
2540327,2000-09-10,3
1580188,2000-06-06,3
1870283,2000-07-05,3
42840137,2004-10-10,9
3500202,2000-12-15,3
42390310,2004-08-26,4
3210232,2000-11-16,3
2420213,2000-08-29,3
2160115,2000-08-03,3
3170127,2000-11-12,3
162832415,2016-10-09,11
2360258,2000-08-23,3
1480356,2000-05-27,3
43000424,2004-10-26,4
42560022,2004-09-12,3
170384399,2017-02-07,2
3550269,2000-12-20,3
1770181,2000-06-25,3
42390310,2004-08-26,4
43090045,2004-11-04,4
10270022,2001-01-27,3
50780259,2005-03-19,4
10070079,2001-01-07,3
2640251,2000-09-20,3
173011297,2017-10-28,5
1570289,2000-06-05,3
3630120,2000-12-28,3
2480179,2000-09-04,3
42300163,2004-08-17,12
42390302,2004-08-26,13
170402079,2017-02-09,3
1500032,2000-05-29,3
42870292,2004-10-13,4
1950310,2000-07-13,3
3500042,2000-12-15,3
42390146,2004-08-26,2
42550207,2004-09-11,13
1630261,2000-06-11,3
2350168,2000-08-22,3
2000051,2000-07-18,3
10120371,2001-01-12,3
42570226,2004-09-13,16
43000444,2004-10-26,4
42590382,2004-09-15,4
42990128,2004-10-25,5
1210119,2000-04-30,3
42320007,2004-08-19,13
171132450,2017-04-23,11
10610387,2001-03-02,4
110790061,2011-03-20,4
2670289,2000-09-23,3
3470381,2000-12-12,3
1750051,2000-06-23,3
1260219,2000-05-05,3
10220128,2001-01-22,3
42650141,2004-09-21,6
1510214,2000-05-30,3
160772478,2016-03-17,11
1860064,2000-07-04,3
3630261,2000-12-28,3
2420193,2000-08-29,4
12900348,2001-10-17,9
82920276,2008-10-18,3
42700047,2004-09-26,5
1070205,2000-04-16,3
110080147,2011-01-08,3
112560266,2011-09-13,11
10080188,2001-01-08,3
42700070,2004-09-26,4
1170210,2000-04-26,3
2600275,2000-09-16,3
3110130,2000-11-06,3
1570132,2000-06-05,3
42520283,2004-09-08,4
152830714,2015-10-10,4
1120098,2000-04-21,3
42470109,2004-09-03,4
62540332,2006-09-11,4
11040236,2001-04-14,4
1610250,2000-06-09,3
3490285,2000-12-14,3
42590251,2004-09-15,19
131460243,2013-05-26,26
42570024,2004-09-13,2
161091410,2016-04-18,4
42790010,2004-10-05,9
42860141,2004-10-12,4
171132450,2017-04-23,11
2100131,2000-07-28,3
1140166,2000-04-23,3
2620286,2000-09-18,3
2930060,2000-10-19,3
42340224,2004-08-21,13
42700047,2004-09-26,5
170183602,2017-01-18,4
2130229,2000-07-31,3
81860336,2008-07-04,4
2900055,2000-10-16,3
42700047,2004-09-26,5
42470343,2004-09-03,13
2460155,2000-09-02,3
1520174,2000-05-31,4
42480321,2004-09-04,13
2680321,2000-09-24,3
162832415,2016-10-09,11
1040095,2000-04-13,3
1990066,2000-07-17,3
3130234,2000-11-08,3
42900032,2004-10-16,13
3320396,2000-11-27,3
1970036,2000-07-15,3
81860336,2008-07-04,4
1670198,2000-06-15,3
1230273,2000-05-02,4
42680296,2004-09-24,4
3430348,2000-12-08,3
42480123,2004-09-04,11
43040298,2004-10-30,13
43050354,2004-10-31,5
173011297,2017-10-28,5
2350060,2000-08-22,3
3660127,2000-12-31,3
161231030,2016-05-02,3
2700271,2000-09-26,3
170321825,2017-02-01,3
42420205,2004-08-29,12
81860336,2008-07-04,4
42390310,2004-08-26,4
3070267,2000-11-02,3
1230273,2000-05-02,4
1420347,2000-05-21,3
1310121,2000-05-10,3
42740007,2004-09-30,13
42600255,2004-09-16,13
42940058,2004-10-20,4
2680130,2000-09-24,3
60650104,2006-03-06,6
1520012,2000-05-31,3
103010327,2010-10-28,4
3010024,2000-10-27,3
2760105,2000-10-02,3
3290102,2000-11-24,3
1500025,2000-05-29,3
42960360,2004-10-22,12
2700134,2000-09-26,3
3300212,2000-11-25,3
43060092,2004-11-01,2
42520165,2004-09-08,18
1660426,2000-06-14,3
163113594,2016-11-06,13
2730006,2000-09-29,3
2000247,2000-07-18,3
2730301,2000-09-29,3
1720256,2000-06-20,3
1360147,2000-05-15,3
2410215,2000-08-28,3
42960025,2004-10-22,4
43090045,2004-11-04,4
1880126,2000-07-06,3
3270353,2000-11-22,3
42490209,2004-09-05,5
170382661,2017-02-07,5
10220006,2001-01-22,3
1070197,2000-04-16,3
152943421,2015-10-21,11
173011297,2017-10-28,5
10100121,2001-01-10,3
41060225,2004-04-15,4
41660168,2004-06-14,4
1230145,2000-05-02,3
2620008,2000-09-18,3
142060010,2014-07-25,4
10020286,2001-01-02,3
42480374,2004-09-04,13
2940007,2000-10-20,3
2130008,2000-07-31,3
42470143,2004-09-03,4
42350336,2004-08-22,9
3360370,2000-12-01,3
1780080,2000-06-26,3
1180189,2000-04-27,3
2720242,2000-09-28,3
1430102,2000-05-22,3
1930044,2000-07-11,3
1310166,2000-05-10,3
3200116,2000-11-15,3
2260040,2000-08-13,3
2420099,2000-08-29,3
2430003,2000-08-30,3
1840094,2000-07-02,3
170182048,2017-01-18,4
81860336,2008-07-04,4
1110286,2000-04-20,3
1950253,2000-07-13,3
152660075,2015-09-23,13
1330125,2000-05-12,3
13510016,2001-12-17,11
152692489,2015-09-26,13
3180039,2000-11-13,3
173011297,2017-10-28,5
2860159,2000-10-12,3
42350242,2004-08-22,4
43000444,2004-10-26,4
2020014,2000-07-20,3
40630429,2004-03-03,4
42700070,2004-09-26,4
42750205,2004-10-01,12
2870115,2000-10-13,3
3430394,2000-12-08,3
2650257,2000-09-21,3
140700329,2014-03-11,5
3440338,2000-12-09,3
1920138,2000-07-10,3
1830059,2000-07-01,3
2500135,2000-09-06,3
42370208,2004-08-24,11
1410131,2000-05-20,3
23380342,2002-12-04,3
1480338,2000-05-27,3
2180315,2000-08-05,3
2370217,2000-08-24,3
1100277,2000-04-19,3
143460078,2014-12-12,4
1660274,2000-06-14,3
10190195,2001-01-19,3
73390283,2007-12-05,6
2460071,2000-09-02,3
160361397,2016-02-05,3
1580010,2000-06-06,3
3010268,2000-10-27,3
3540410,2000-12-19,3
2450263,2000-09-01,3
131580008,2013-06-07,4
3310034,2000-11-26,3
1210053,2000-04-30,3
10200200,2001-01-20,3
2050033,2000-07-23,3
1230164,2000-05-02,3
10220059,2001-01-22,3
160973392,2016-04-06,2
2090228,2000-07-27,3
2740339,2000-09-30,3
101240117,2010-05-04,2
1180046,2000-04-27,3
2200124,2000-08-07,3
92870366,2009-10-14,4
3650333,2000-12-30,3
31980191,2003-07-17,4
2280249,2000-08-15,3
172141970,2017-08-02,4
10030109,2001-01-03,3
1290018,2000-05-08,3
1310231,2000-05-10,3
61890115,2006-07-08,4
1430124,2000-05-22,3
61000376,2006-04-10,4
161251642,2016-05-04,5
3590152,2000-12-24,3
1220207,2000-05-01,3
3190064,2000-11-14,3
1250267,2000-05-04,3
10940024,2001-04-04,4
2760237,2000-10-02,3
60900244,2006-03-31,5
1200245,2000-04-29,3
32040021,2003-07-23,2
3620012,2000-12-27,3
21410146,2002-05-21,4
2210007,2000-08-08,3
1580031,2000-06-06,3
3300072,2000-11-25,3
170171972,2017-01-17,13
71830142,2007-07-02,2
1080343,2000-04-17,3
3500454,2000-12-15,3
3190096,2000-11-14,3
2350157,2000-08-22,3
3360390,2000-12-01,3
3350218,2000-11-30,3
3650127,2000-12-30,3
2240021,2000-08-11,3
1480159,2000-05-27,3
1680001,2000-06-16,4
3600284,2000-12-25,3
160353180,2016-02-04,3
1050249,2000-04-14,3
73480341,2007-12-14,4
151022837,2015-04-12,4
1390329,2000-05-18,3
1970049,2000-07-15,3
1510190,2000-05-30,3
31770513,2003-06-26,2
3150230,2000-11-10,3
162070120,2016-07-25,3
1800168,2000-06-28,3
111030304,2011-04-13,13
2850037,2000-10-11,3
10190158,2001-01-19,3
3440160,2000-12-09,3
10750353,2001-03-16,4
1410011,2000-05-20,3
150731888,2015-03-14,3
3200054,2000-11-15,3
141741491,2014-06-23,13
2220019,2000-08-09,3
10260383,2001-01-26,3
3480281,2000-12-13,3
2610087,2000-09-17,3
43240202,2004-11-19,8
163140751,2016-11-09,13
1330142,2000-05-12,3
1440218,2000-05-23,3
1920108,2000-07-10,3
2550173,2000-09-11,3
2970318,2000-10-23,3
1450094,2000-05-24,5
2590232,2000-09-15,3
10060167,2001-01-06,3
3470259,2000-12-12,3
50850299,2005-03-26,4
10080351,2001-01-08,3
1310273,2000-05-10,3
2350025,2000-08-22,3
3480335,2000-12-13,3
160372595,2016-02-06,3
132120190,2013-07-31,0
60190037,2006-01-19,4
71750224,2007-06-24,3
2100044,2000-07-28,3
3450133,2000-12-10,3
2090008,2000-07-27,3
3020101,2000-10-28,3
1550319,2000-06-03,3
10250228,2001-01-25,3
10080436,2001-01-08,3
150361994,2015-02-05,4
90530219,2009-02-22,2
50850299,2005-03-26,4
3490194,2000-12-14,3
151791598,2015-06-28,3
1310008,2000-05-10,3
10190002,2001-01-19,3
2120216,2000-07-30,3
1120296,2000-04-21,3
1400265,2000-05-19,3
1980010,2000-07-16,3
160020117,2016-01-02,4
1500117,2000-05-29,3
1540106,2000-06-02,3
2960062,2000-10-22,3
10250407,2001-01-25,3
2240259,2000-08-11,3
10240396,2001-01-24,3
3390182,2000-12-04,3
2010054,2000-07-19,3
11510434,2001-05-31,4
2760052,2000-10-02,3
1250136,2000-05-04,3
3020288,2000-10-28,3
1660577,2000-06-14,3
72640103,2007-09-21,5
132980202,2013-10-25,3
3380001,2000-12-03,3
153172444,2015-11-13,5
1850148,2000-07-03,3
21530051,2002-06-02,4
2530228,2000-09-09,3
2170013,2000-08-04,3
3450337,2000-12-10,3
180221677,2018-01-22,4
172141970,2017-08-02,4
2730213,2000-09-29,3
10050237,2001-01-05,3
3010235,2000-10-27,3
130970253,2013-04-07,4
3220231,2000-11-17,3
101730026,2010-06-22,13
1890013,2000-07-07,6
71720195,2007-06-21,8
160322932,2016-02-01,3
2630242,2000-09-19,3
33540243,2003-12-20,4
10020227,2001-01-02,3
3000206,2000-10-26,3
1150203,2000-04-24,3
3020192,2000-10-28,3
2410303,2000-08-28,3
50540221,2005-02-23,4
131950053,2013-07-14,4
1120183,2000-04-21,3
160291408,2016-01-29,9
2030067,2000-07-21,3
1660444,2000-06-14,3
23600228,2002-12-26,6
160343193,2016-02-03,3
3420284,2000-12-07,3
1930150,2000-07-11,3
10230304,2001-01-23,3
1910224,2000-07-09,3
10020127,2001-01-02,3
1560281,2000-06-04,3
2140132,2000-08-01,3
61350195,2006-05-15,4
1690285,2000-06-17,3
3090249,2000-11-04,3
2090109,2000-07-27,3
2080092,2000-07-26,3
110820282,2011-03-23,3
41890131,2004-07-07,4
40850179,2004-03-25,3
2040262,2000-07-22,3
2370129,2000-08-24,3
3010218,2000-10-27,3
1450057,2000-05-24,3
160311528,2016-01-31,3
3500449,2000-12-15,3
3090095,2000-11-04,3
1830067,2000-07-01,3
1870302,2000-07-05,3
1530137,2000-06-01,3
2620186,2000-09-18,3
2070063,2000-07-25,3
10160134,2001-01-16,3
2990190,2000-10-25,3
2220103,2000-08-09,3
51400033,2005-05-20,4
3520364,2000-12-17,3
10120465,2001-01-12,3
2370270,2000-08-24,3
22540195,2002-09-11,5
1790276,2000-06-27,3
10100197,2001-01-10,3
2750053,2000-10-01,3
2250252,2000-08-12,3
1970030,2000-07-15,4
111240328,2011-05-04,4
2400228,2000-08-27,3
160322515,2016-02-01,3
10250388,2001-01-25,3
3260353,2000-11-21,3
92870366,2009-10-14,4
1220191,2000-05-01,3
2740151,2000-09-30,3
1670069,2000-06-15,3
1340190,2000-05-13,3
10280006,2001-01-28,3
82960282,2008-10-22,15
1340203,2000-05-13,3
10120119,2001-01-12,3
1780010,2000-06-26,3
2310160,2000-08-18,3
2450234,2000-09-01,3
2600062,2000-09-16,3
142161474,2014-08-04,4
53060222,2005-11-02,5
10270017,2001-01-27,3
2520100,2000-09-08,3
2390019,2000-08-26,3
3420350,2000-12-07,3
2870285,2000-10-13,3
90350075,2009-02-04,4
10270163,2001-01-27,3
2980259,2000-10-24,3
101780160,2010-06-27,3
160311464,2016-01-31,3
131450239,2013-05-25,4
10020094,2001-01-02,3
1650040,2000-06-13,3
2290283,2000-08-16,3
73520060,2007-12-18,4
152573661,2015-09-14,16
2490194,2000-09-05,3
102720279,2010-09-29,3
3480308,2000-12-13,3
21820330,2002-07-01,5
3530040,2000-12-18,3
1300259,2000-05-09,3
2540001,2000-09-10,3
93380167,2009-12-04,12
133060296,2013-11-02,15
10210005,2001-01-21,4
160362983,2016-02-05,3
10220013,2001-01-22,3
10080364,2001-01-08,3
130420280,2013-02-11,4
3080287,2000-11-03,3
63520265,2006-12-18,4
1900271,2000-07-08,3
1190025,2000-04-28,3
2850165,2000-10-11,3
2910276,2000-10-17,3
1670090,2000-06-15,3
160362566,2016-02-05,3
63120185,2006-11-08,3
110010201,2011-01-01,9
3630205,2000-12-28,3
160312922,2016-01-31,3
41830198,2004-07-01,3
2030005,2000-07-21,3
2910031,2000-10-17,3
2270263,2000-08-14,3
163331847,2016-11-28,9
10150247,2001-01-15,3
3620377,2000-12-27,3
2410089,2000-08-28,3
1600048,2000-06-08,3
1790141,2000-06-27,3
160342979,2016-02-03,3
101610372,2010-06-10,3
12310175,2001-08-19,4
12350043,2001-08-23,4
20710304,2002-03-12,5
3230259,2000-11-18,3
2240340,2000-08-11,3
2870219,2000-10-13,3
1900201,2000-07-08,3
1230169,2000-05-02,3
3360174,2000-12-01,3
3470225,2000-12-12,3
71070039,2007-04-17,4
91200132,2009-04-30,3
1940273,2000-07-12,3
3530019,2000-12-18,3
3220228,2000-11-17,3
2640161,2000-09-20,3
2450220,2000-09-01,3
1530086,2000-06-01,3
3440425,2000-12-09,3
2300209,2000-08-17,3
1630240,2000-06-11,3
3210015,2000-11-16,3
171881731,2017-07-07,16
72810263,2007-10-08,4
162101644,2016-07-28,8
2170085,2000-08-04,3
2080024,2000-07-26,3
3500190,2000-12-15,3
91680116,2009-06-17,6
122520236,2012-09-08,5
2320256,2000-08-19,3
3110048,2000-11-06,3
2030195,2000-07-21,3
1480027,2000-05-27,3
3510031,2000-12-16,3
10230300,2001-01-23,3
71580394,2007-06-07,4
62680261,2006-09-25,4
3280110,2000-11-23,3
1250059,2000-05-04,3
2740001,2000-09-29,3
1680001,2000-06-16,4
30380233,2003-02-07,5
1470077,2000-05-26,3
160372836,2016-02-06,3
93640174,2009-12-30,0
2310218,2000-08-18,3
10150019,2001-01-15,3
2030054,2000-07-21,3
3010279,2000-10-27,3
2200250,2000-08-07,3
3440181,2000-12-09,3
3400307,2000-12-05,3
2760167,2000-10-02,3
1640026,2000-06-12,3
32460351,2003-09-03,4
63000017,2006-10-27,5
3240222,2000-11-19,3
1790022,2000-06-27,3
2210036,2000-08-08,3
2150179,2000-08-02,3
160312922,2016-01-31,3
161810076,2016-06-29,4
20570083,2002-02-26,5
1730042,2000-06-21,3
1320134,2000-05-11,3
2730022,2000-09-29,3
101780275,2010-06-27,3
10060156,2001-01-06,3
41740125,2004-06-22,4
2520218,2000-09-08,3
2130254,2000-07-31,3
3330210,2000-11-28,3
3450222,2000-12-10,3
1490067,2000-05-28,3
2640167,2000-09-20,3
153430373,2015-12-09,13
51390369,2005-05-19,3
3490400,2000-12-14,3
2320008,2000-08-19,3
2480264,2000-09-04,3
1640162,2000-06-12,3
173013282,2017-10-28,27
30790188,2003-03-20,19
2280155,2000-08-15,3
1070116,2000-04-16,3
1970030,2000-07-15,4
3300275,2000-11-25,3
22370076,2002-08-25,4
1850015,2000-07-03,3
1160088,2000-04-25,3
1270003,2000-05-06,3
10180384,2001-01-18,3
2110166,2000-07-29,3
132630336,2013-09-20,5
51130208,2005-04-23,5
1720041,2000-06-20,3
1180170,2000-04-27,3
2520014,2000-09-08,3
172222129,2017-08-10,8
2670273,2000-09-23,3
3220046,2000-11-17,3
3060035,2000-11-01,3
130430356,2013-02-12,13
1810281,2000-06-29,3
2590232,2000-09-15,3
1920047,2000-07-10,3
160322932,2016-02-01,3
3430046,2000-12-08,3
142561979,2014-09-13,14
2930108,2000-10-19,3
142750917,2014-10-02,5
3120071,2000-11-07,3
3060209,2000-11-01,3
120360073,2012-02-05,4
10160297,2001-01-16,3
71630150,2007-06-12,10
1840248,2000-07-02,3
3460009,2000-12-11,3
52610354,2005-09-18,4
1690256,2000-06-17,3
1660337,2000-06-14,3
1680256,2000-06-16,3
150731947,2015-03-14,3
3640343,2000-12-29,3
1720070,2000-06-20,3
12900422,2001-10-17,5
21530051,2002-06-02,4
3490002,2000-12-14,3
3510064,2000-12-16,3
10190365,2001-01-19,3
132850323,2013-10-12,13
150321434,2015-02-01,13
3530004,2000-12-18,3
13580015,2001-12-24,4
2590002,2000-09-15,3
163231583,2016-11-18,12
2250223,2000-08-12,3
63180297,2006-11-14,16
32800016,2003-10-07,5
1960060,2000-07-14,3
2080253,2000-07-26,3
3510349,2000-12-16,3
151413102,2015-05-21,3
21680145,2002-06-17,4
63400104,2006-12-06,4
1960013,2000-07-14,3
2750045,2000-10-01,3
3230282,2000-11-18,3
61350195,2006-05-15,4
1780165,2000-06-26,3
1890168,2000-07-07,3
3400115,2000-12-05,3
1310264,2000-05-10,3
160363960,2016-02-05,3
2290164,2000-08-16,3
112240095,2011-08-12,5
1980153,2000-07-16,3
10280030,2001-01-28,3
10140230,2001-01-14,3
3370016,2000-12-02,3
3260327,2000-11-21,3
130420280,2013-02-11,4
2210276,2000-08-08,3
10230408,2001-01-23,3
2280222,2000-08-15,3
1950003,2000-07-13,3
101090027,2010-04-19,5
142561979,2014-09-13,14
1830132,2000-07-01,3
10010391,2001-01-01,3
1870330,2000-07-05,3
1970260,2000-07-15,3
2800144,2000-10-06,3
3610319,2000-12-26,3
121540335,2012-06-02,4
2540326,2000-09-10,3
1210078,2000-04-30,3
2170166,2000-08-04,3
1040173,2000-04-13,3
2850271,2000-10-11,3
90350191,2009-02-04,3
1420050,2000-05-21,3
2220292,2000-08-09,3
2730281,2000-09-29,3
2850227,2000-10-11,3
1880003,2000-07-06,3
123200231,2012-11-15,10
160343177,2016-02-03,3
81100377,2008-04-19,4
2060118,2000-07-24,3
2850195,2000-10-11,3
10030389,2001-01-03,3
20130172,2002-01-13,9
3440015,2000-12-09,3
12540286,2001-09-11,3
1710094,2000-06-19,3
2810176,2000-10-07,3
1960193,2000-07-14,3
1950301,2000-07-13,3
1720087,2000-06-20,3
1670069,2000-06-15,3
2610110,2000-09-17,3
2300063,2000-08-17,3
2220037,2000-08-09,3
1430175,2000-05-22,3
91920296,2009-07-11,2
1920244,2000-07-10,3
61840025,2006-07-03,13
32530307,2003-09-10,4
2190030,2000-08-06,3
1080226,2000-04-17,3
2220270,2000-08-09,3
2240174,2000-08-11,3
10050361,2001-01-05,3
3350139,2000-11-30,3
1080196,2000-04-17,3
32310241,2003-08-19,5
13600364,2001-12-26,4
3530309,2000-12-18,3
113650374,2011-12-31,3
1130268,2000-04-22,3
1420003,2000-05-21,3
1070255,2000-04-16,3
3230217,2000-11-18,4
33490398,2003-12-15,8
3590200,2000-12-24,3
61480107,2006-05-28,4
10220120,2001-01-22,3
10530016,2001-02-22,4
1300235,2000-05-09,4
111240328,2011-05-04,4
10100226,2001-01-10,5
2110031,2000-07-29,3
53350070,2005-12-01,3
2090014,2000-07-27,3
3590041,2000-12-24,3
2820238,2000-10-08,3
43080259,2004-11-03,4
10950344,2001-04-05,4
2220268,2000-08-09,3
3080109,2000-11-03,3
2380280,2000-08-25,3
1730121,2000-06-21,3
130360063,2013-02-05,4
10220414,2001-01-22,3
3530421,2000-12-18,3
2870286,2000-10-13,3
3560005,2000-12-21,3
10180367,2001-01-18,3
1820144,2000-06-30,3
2090275,2000-07-27,3
2120165,2000-07-30,3
1820068,2000-06-30,3
1540298,2000-06-02,3
21820330,2002-07-01,5
2410006,2000-08-28,3
52690330,2005-09-26,4
21650203,2002-06-14,4
121760307,2012-06-24,3
151271369,2015-05-07,5
130860002,2013-03-27,3
10050102,2001-01-05,3
3230147,2000-11-18,3
10250182,2001-01-25,3
1950039,2000-07-13,3
150200189,2015-01-20,4
1290017,2000-05-08,3
142750917,2014-10-02,5
3410293,2000-12-06,3
1120215,2000-04-21,3
1230011,2000-05-02,3
1130243,2000-04-22,3
3030283,2000-10-29,3
2000126,2000-07-18,3
2030007,2000-07-21,3
1140069,2000-04-23,3
1580055,2000-06-06,3
2140002,2000-08-01,3
1220017,2000-05-01,3
52460208,2005-09-03,13
60240120,2006-01-24,4
3220016,2000-11-17,3
1290226,2000-05-08,3
50630155,2005-03-04,3
2880197,2000-10-14,3
10020269,2001-01-02,3
2170129,2000-08-04,3
1500050,2000-05-29,3
2100242,2000-07-28,3
1310016,2000-05-10,3
90280360,2009-01-28,3
2330138,2000-08-20,3
3260025,2000-11-21,3
73520060,2007-12-18,4
2320120,2000-08-19,3
3550033,2000-12-20,3
3480386,2000-12-13,3
2640247,2000-09-20,3
1100265,2000-04-19,3
1940279,2000-07-12,3
10080125,2001-01-08,3
1320109,2000-05-11,3
1800201,2000-06-28,3
1870188,2000-07-05,3
1370222,2000-05-16,3
3130095,2000-11-08,3
10140189,2001-01-14,3
10100382,2001-01-10,3
10150263,2001-01-15,3
40210180,2004-01-21,5
2190280,2000-08-06,3
2420010,2000-08-29,3
160353180,2016-02-04,3
160352484,2016-02-04,3
1790129,2000-06-27,3
2440157,2000-08-31,3
3340319,2000-11-29,3
3580007,2000-12-23,3
2650131,2000-09-21,3
61720375,2006-06-21,4
50120055,2005-01-12,13
1990217,2000-07-17,3
3480213,2000-12-13,3
3650120,2000-12-30,3
2510302,2000-09-07,3
3600061,2000-12-25,3
3500190,2000-12-15,3
3290257,2000-11-24,3
81040397,2008-04-13,9
3570282,2000-12-22,3
3180285,2000-11-13,3
111240328,2011-05-04,4
3500436,2000-12-15,3
3630161,2000-12-28,3
3580041,2000-12-23,3
101780151,2010-06-27,3
10220268,2001-01-22,4
1910260,2000-07-09,3
150731888,2015-03-14,3
2620296,2000-09-18,3
1040173,2000-04-13,3
131850252,2013-07-04,4
1040285,2000-04-13,3
3110075,2000-11-06,3
2800171,2000-10-06,3
10240352,2001-01-24,3
3480384,2000-12-13,3
172141970,2017-08-02,4
3620380,2000-12-27,3
1490230,2000-05-28,3
1720002,2000-06-20,3
2460307,2000-09-02,3
3150107,2000-11-10,3
3210007,2000-11-16,3
1250193,2000-05-04,3
1120201,2000-04-21,3
61120258,2006-04-22,4
10020307,2001-01-02,3
43500148,2004-12-15,3
12880098,2001-10-15,9
10020095,2001-01-02,3
3650119,2000-12-30,3
1220258,2000-05-01,3
2990214,2000-10-25,7
2990065,2000-10-25,3
2640120,2000-09-20,3
2610241,2000-09-17,3
1630227,2000-06-11,3
2360193,2000-08-23,3
1790169,2000-06-27,3
101780225,2010-06-27,3
3310085,2000-11-26,4
10270294,2001-01-27,3
100490255,2010-02-18,15
1430012,2000-05-22,3
10340157,2001-02-03,18
1570107,2000-06-05,3
2720209,2000-09-28,3
41570434,2004-06-05,12
2210306,2000-08-08,3
41600070,2004-06-08,3
1330005,2000-05-12,3
131800459,2013-06-29,3
30510015,2003-02-20,4
1250327,2000-05-04,3
2070197,2000-07-25,3
13600043,2001-12-26,5
173653375,2017-12-31,3
1820118,2000-06-30,3
162101644,2016-07-28,8
153050864,2015-11-01,3
2380206,2000-08-25,3
160770136,2016-03-17,4
3110201,2000-11-06,3
10090047,2001-01-09,3
42300032,2004-08-17,4
2850076,2000-10-11,3
162410880,2016-08-28,13
160722144,2016-03-12,8
1080003,2000-04-17,3
130110285,2013-01-11,13
160362983,2016-02-05,3
100090024,2010-01-09,2
10160408,2001-01-16,3
110710330,2011-03-12,4
1140051,2000-04-23,3
30790172,2003-03-20,19
1960201,2000-07-14,3
61010042,2006-04-11,6
3510080,2000-12-16,3
1190313,2000-04-28,3
41780048,2004-06-26,4
133620336,2013-12-28,2
160133496,2016-01-13,5
10120374,2001-01-12,3
3120313,2000-11-07,3
1560057,2000-06-04,3
2570262,2000-09-13,3
10080387,2001-01-08,3
100750004,2010-03-16,4
1040305,2000-04-13,3
122760207,2012-10-02,16
2980257,2000-10-24,3
43580363,2004-12-23,4
3150079,2000-11-10,3
160372836,2016-02-06,3
2310254,2000-08-18,3
10030012,2001-01-03,3
10120190,2001-01-12,3
1630229,2000-06-11,3
1380137,2000-05-17,3
100430033,2010-02-12,13
110200336,2011-01-20,16
3150007,2000-11-10,3
10250407,2001-01-25,3
20660097,2002-03-07,4
90910217,2009-04-01,13
53090236,2005-11-05,4
141930900,2014-07-12,5
2060189,2000-07-24,3
2510016,2000-09-07,3
72850146,2007-10-12,4
3540441,2000-12-19,3
3430065,2000-12-08,3
82830375,2008-10-09,4
3120315,2000-11-07,3
70620364,2007-03-03,3
11870403,2001-07-06,4
1400041,2000-05-19,3
143333191,2014-11-29,4
2480016,2000-09-04,3
1820186,2000-06-30,3
2770127,2000-10-03,3
3450370,2000-12-10,3
2700199,2000-09-26,3
123160233,2012-11-11,13
1590261,2000-06-07,3
171150531,2017-04-25,4
61880406,2006-07-07,4
2130101,2000-07-31,3
2510326,2000-09-07,3
10070135,2001-01-07,3
151350513,2015-05-15,13
92220359,2009-08-10,4
2140119,2000-08-01,3
2940105,2000-10-20,3
1380121,2000-05-17,4
50680351,2005-03-09,4
1980055,2000-07-16,3
122940295,2012-10-20,3
1970080,2000-07-15,3
133490107,2013-12-15,4
101420172,2010-05-22,4
2620035,2000-09-18,3
41730139,2004-06-21,5
51910204,2005-07-10,4
120870067,2012-03-27,16
3560266,2000-12-21,3
3630034,2000-12-28,3
170770571,2017-03-18,4
2750034,2000-10-01,3
3150008,2000-11-10,4
1770134,2000-06-25,3
3380020,2000-12-03,3
2460089,2000-09-02,3
12420081,2001-08-30,4
153181468,2015-11-14,3
30120079,2003-01-12,4
92220359,2009-08-10,4
43330062,2004-11-28,10
100040157,2010-01-04,4
142351944,2014-08-23,4
2290302,2000-08-16,3
3300350,2000-11-25,3
170340732,2017-02-03,4
2500319,2000-09-06,4
2060001,2000-07-23,3
1740111,2000-06-22,3
2610379,2000-09-17,3
2510337,2000-09-07,3
172453346,2017-09-02,3
3120089,2000-11-07,3
1830291,2000-07-01,3
32700328,2003-09-27,4
70570054,2007-02-26,4
32110289,2003-07-30,12
2560065,2000-09-12,3
1150122,2000-04-24,3
2920122,2000-10-18,3
2530061,2000-09-09,3
153300319,2015-11-26,13
10180157,2001-01-18,3
101610337,2010-06-10,8
12040034,2001-07-23,4
100510240,2010-02-20,4
10020242,2001-01-02,3
3100256,2000-11-05,3
111150010,2011-04-25,4
2090007,2000-07-27,3
1290015,2000-05-08,3
41570359,2004-06-05,4
1810010,2000-06-29,3
41570359,2004-06-05,4
50340001,2005-02-03,12
51580130,2005-06-07,4
180162686,2018-01-16,4
3150008,2000-11-10,4
1260237,2000-05-05,3
173460423,2017-12-12,4
120230095,2012-01-23,4
62520114,2006-09-09,3
2420238,2000-08-29,3
2320020,2000-08-19,3
3240041,2000-11-19,3
41690289,2004-06-17,3
122300407,2012-08-17,4
2600293,2000-09-16,3
42030336,2004-07-21,3
162920036,2016-10-18,13
81600050,2008-06-08,2
123410063,2012-12-06,3
1050038,2000-04-14,3
10150377,2001-01-15,3
121760271,2012-06-24,3
10090321,2001-01-09,3
1880020,2000-07-06,3
10230073,2001-01-23,3
32050298,2003-07-24,4
2590063,2000-09-15,3
2280110,2000-08-15,4
180033841,2018-01-03,8
10390169,2001-02-08,5
3370003,2000-12-02,3
3000187,2000-10-26,3
3650141,2000-12-30,3
30100418,2003-01-10,4
2800223,2000-10-06,3
101780203,2010-06-27,3
81510237,2008-05-30,4
3410350,2000-12-06,3
2530319,2000-09-09,3
3200002,2000-11-15,3
83070077,2008-11-02,4
1040273,2000-04-13,3
2850043,2000-10-11,3
1590025,2000-06-07,3
3210239,2000-11-16,3
1430318,2000-05-22,3
3160005,2000-11-11,3
1650209,2000-06-13,3
3280267,2000-11-23,3
3080250,2000-11-03,3
3400309,2000-12-05,3
1450099,2000-05-24,3
13530135,2001-12-19,4
150321620,2015-02-01,13
102410186,2010-08-29,4
2370004,2000-08-24,3
62530084,2006-09-10,4
3160079,2000-11-11,3
2870048,2000-10-13,3
3440006,2000-12-09,3
20220214,2002-01-22,5
1530275,2000-06-01,3
2500286,2000-09-06,3
1720216,2000-06-20,3
60130166,2006-01-13,5
53060037,2005-11-02,2
2700226,2000-09-26,3
130550168,2013-02-24,4
10210285,2001-01-21,3
2620107,2000-09-18,3
10770143,2001-03-18,4
2060274,2000-07-24,3
2700035,2000-09-26,3
20720428,2002-03-13,5
2190139,2000-08-06,3
2900008,2000-10-16,3
1510212,2000-05-30,3
110400213,2011-02-09,3
3230049,2000-11-18,3
10270346,2001-01-27,3
3530058,2000-12-18,3
63450273,2006-12-11,4
110990058,2011-04-09,4
1840227,2000-07-02,3
1700080,2000-06-18,3
123250017,2012-11-20,2
2690306,2000-09-25,3
82790211,2008-10-05,13
2800164,2000-10-06,3
151990946,2015-07-18,6
2520068,2000-09-08,3
1400017,2000-05-19,3
1990153,2000-07-17,3
122580038,2012-09-14,4
1670218,2000-06-15,3
80880372,2008-03-28,4
1660247,2000-06-14,3
1700167,2000-06-18,3
150732296,2015-03-14,12
32410054,2003-08-29,4
3360045,2000-12-01,3
70250319,2007-01-25,5
10250438,2001-01-25,3
1660230,2000-06-14,3
73220179,2007-11-18,4
172444307,2017-09-01,3
3460340,2000-12-11,3
1770033,2000-06-25,3
1920257,2000-07-10,3
32630166,2003-09-20,5
3570206,2000-12-22,3
2490009,2000-09-05,3
170533469,2017-02-22,13
1900010,2000-07-08,3
102900098,2010-10-17,4
100580307,2010-02-27,3
92340158,2009-08-22,5
152060037,2015-07-25,10
10050041,2001-01-05,3
2610269,2000-09-17,3
31590273,2003-06-08,0
63050333,2006-11-01,9
2020224,2000-07-20,3
170633347,2017-03-04,6
51540245,2005-06-03,4
173571384,2017-12-23,4
2900133,2000-10-16,3
121300325,2012-05-09,4
3500215,2000-12-15,3
1270299,2000-05-06,3
2860241,2000-10-12,3
2160031,2000-08-03,3
90500362,2009-02-19,2
1450236,2000-05-24,3
3290054,2000-11-24,3
2860013,2000-10-12,3
10070284,2001-01-07,3
1150302,2000-04-24,3
1480223,2000-05-27,3
2710043,2000-09-27,3
130550168,2013-02-24,4
3060193,2000-11-01,3
2350112,2000-08-22,3
40210311,2004-01-21,4
3190201,2000-11-14,3
162143866,2016-08-01,0
10050283,2001-01-05,3
2870056,2000-10-13,3
73030331,2007-10-30,3
22870326,2002-10-14,4
2270249,2000-08-14,3
2180161,2000-08-05,3
32160228,2003-08-04,4
2640087,2000-09-20,3
2580048,2000-09-14,3
2220063,2000-08-09,3
1720186,2000-06-20,3
3160007,2000-11-11,3
10770143,2001-03-18,4
1500258,2000-05-29,3
2710204,2000-09-27,3
2420120,2000-08-29,3
3250105,2000-11-20,3
11510060,2001-05-31,4
2950005,2000-10-21,3
12410350,2001-08-29,5
140460326,2014-02-15,2
1830241,2000-07-01,3
2770198,2000-10-03,3
1110204,2000-04-20,3
61630077,2006-06-12,4
1580154,2000-06-06,3
2470246,2000-09-03,4
2990011,2000-10-25,3
1270139,2000-05-06,3
151792110,2015-06-28,3
1240136,2000-05-03,3
1610014,2000-06-09,3
121290178,2012-05-08,16
1290199,2000-05-08,3
2610195,2000-09-17,3
1180029,2000-04-27,3
141180059,2014-04-28,4
122780259,2012-10-04,4
3270046,2000-11-22,3
2960099,2000-10-22,3
2810254,2000-10-07,3
2620072,2000-09-18,3
1400310,2000-05-19,3
1770296,2000-06-25,3
1990025,2000-07-17,3
1860046,2000-07-04,3
161912119,2016-07-09,2
1940031,2000-07-12,3
113440249,2011-12-10,4
2390033,2000-08-26,3
10030392,2001-01-03,3
1610287,2000-06-09,3
72620369,2007-09-19,18
2980150,2000-10-24,3
2250261,2000-08-12,3
1520144,2000-05-31,3
3030102,2000-10-29,3
2180312,2000-08-05,3
32470252,2003-09-04,4
113250068,2011-11-21,16
63020098,2006-10-29,3
2580013,2000-09-14,3
2040020,2000-07-22,3
2590045,2000-09-15,3
62530084,2006-09-10,4
2140204,2000-08-01,3
3080045,2000-11-03,3
51420050,2005-05-22,4
43110108,2004-11-06,4
53260235,2005-11-22,4
3470286,2000-12-12,3
101640019,2010-06-13,4
171111879,2017-04-21,2
92100321,2009-07-29,3
3590267,2000-12-24,3
2680062,2000-09-24,3
1610305,2000-06-09,3
1460248,2000-05-25,3
10210372,2001-01-21,3
1400241,2000-05-19,3
3230197,2000-11-18,3
10770143,2001-03-18,4
3350183,2000-11-30,3
3450278,2000-12-10,3
91560159,2009-06-05,4
133090064,2013-11-05,3
3360192,2000-12-01,4
42190067,2004-08-06,4
2090122,2000-07-27,3
53380332,2005-12-04,4
3120243,2000-11-07,3
72870103,2007-10-14,3
3120016,2000-11-07,3
2340196,2000-08-21,3
1700046,2000-06-18,18
3330336,2000-11-28,3
100740387,2010-03-15,4
3310043,2000-11-26,3
2020244,2000-07-20,3
110610185,2011-03-02,4
10220277,2001-01-22,3
3060266,2000-11-01,3
32250096,2003-08-13,4
51540245,2005-06-03,4
3630149,2000-12-28,3
1330106,2000-05-12,3
1290163,2000-05-08,3
1110087,2000-04-20,3
1970304,2000-07-15,3
10200054,2001-01-20,3
2910211,2000-10-17,3
1310249,2000-05-10,3
80350195,2008-02-04,9
120360255,2012-02-05,5
3340165,2000-11-29,3
3180001,2000-11-12,3
3340193,2000-11-29,3
2730224,2000-09-29,3
2960058,2000-10-22,4
3650060,2000-12-30,4
2910296,2000-10-17,3
1810069,2000-06-29,3
10440045,2001-02-13,4
2440265,2000-08-31,4
1550202,2000-06-03,3
3440089,2000-12-09,3
1440114,2000-05-23,3
3370419,2000-12-02,3
10120389,2001-01-12,3
1810179,2000-06-29,3
10440045,2001-02-13,4
2070214,2000-07-25,3
2890081,2000-10-15,3
80550146,2008-02-24,2
2430043,2000-08-30,3
1930012,2000-07-11,3
2060271,2000-07-24,3
3590026,2000-12-24,3
2250218,2000-08-12,3
1830048,2000-07-01,3
1480263,2000-05-27,3
1540040,2000-06-02,3
10970313,2001-04-07,5
3080008,2000-11-03,3
22040357,2002-07-23,4
3150202,2000-11-10,3
2870125,2000-10-13,3
163663666,2016-12-31,3
171111811,2017-04-21,1
1070086,2000-04-16,4
2420057,2000-08-29,3
2890201,2000-10-15,3
1300051,2000-05-09,3
1490240,2000-05-28,3
1660070,2000-06-14,3
1310196,2000-05-10,3
2610343,2000-09-17,3
1350013,2000-05-14,3
1240039,2000-05-03,3
2180015,2000-08-05,3
2470177,2000-09-03,3
130630364,2013-03-04,13
1490024,2000-05-28,3
10030058,2001-01-03,3
51920166,2005-07-11,3
71940018,2007-07-13,6
3340007,2000-11-29,3
1330287,2000-05-12,3
1560010,2000-06-04,3
10120151,2001-01-12,3
40290323,2004-01-29,4
2150264,2000-08-02,3
1180019,2000-04-27,3
3200173,2000-11-15,3
1400291,2000-05-19,3
2030323,2000-07-21,3
3270032,2000-11-22,3
3440389,2000-12-09,3
3460059,2000-12-11,3
2970034,2000-10-23,3
113550021,2011-12-21,2
3360265,2000-12-01,3
71320310,2007-05-12,4
3620329,2000-12-27,3
3240050,2000-11-19,3
51790221,2005-06-28,4
121760272,2012-06-24,3
1900051,2000-07-08,3
123540262,2012-12-19,4
41960145,2004-07-14,9
82650060,2008-09-21,4
3550300,2000-12-20,3
103270349,2010-11-23,3
1360158,2000-05-15,3
70620078,2007-03-03,3
102900098,2010-10-17,4
40060326,2004-01-06,13
2490191,2000-09-05,3
1230013,2000-05-02,3
1240156,2000-05-03,3
143293724,2014-11-25,13
52220060,2005-08-10,5
3550195,2000-12-20,3
3220230,2000-11-17,3
81410360,2008-05-20,4
2910044,2000-10-17,3
2660069,2000-09-22,3
100440319,2010-02-13,3
142360745,2014-08-24,2
2720208,2000-09-28,3
62620429,2006-09-19,4
52600048,2005-09-17,4
131690309,2013-06-18,4
1880050,2000-07-06,3
92000046,2009-07-19,13
2150028,2000-08-02,3
50300104,2005-01-30,5
3520174,2000-12-17,3
2830293,2000-10-09,3
2530122,2000-09-09,4
61540130,2006-06-03,4
2560068,2000-09-12,3
2760086,2000-10-02,3
2200062,2000-08-07,3
111600335,2011-06-09,4
3520127,2000-12-17,3
2660039,2000-09-22,3
101780296,2010-06-27,3
10170282,2001-01-17,3
120770402,2012-03-17,3
130960094,2013-04-06,4
10090318,2001-01-09,3
3510385,2000-12-16,3
3280245,2000-11-23,3
3650060,2000-12-30,4
2430186,2000-08-30,3
3290146,2000-11-24,3
10040022,2001-01-04,3
2470012,2000-09-03,3
2980027,2000-10-24,3
121810124,2012-06-29,4
91750294,2009-06-24,4
91560159,2009-06-05,4
1430008,2000-05-22,3
93200112,2009-11-16,5
2600057,2000-09-16,3
2970184,2000-10-23,3
31630198,2003-06-12,14
1280116,2000-05-07,3
1460284,2000-05-25,3
71240406,2007-05-04,4
1510026,2000-05-30,3
3130262,2000-11-08,3
1580245,2000-06-06,3
2640127,2000-09-20,3
1100154,2000-04-19,3
171112591,2017-04-21,2
1600271,2000-06-08,3
10260273,2001-01-26,3
2020261,2000-07-20,3
10920203,2001-04-02,4
161250186,2016-05-04,4
1780133,2000-06-26,4
1240104,2000-05-03,3
23220334,2002-11-18,4
1170219,2000-04-26,3
103070159,2010-11-03,3
171440476,2017-05-24,3
2950045,2000-10-21,3
3370340,2000-12-02,3
103140234,2010-11-10,4
63070032,2006-11-03,4
1150106,2000-04-24,3
1660514,2000-06-14,3
2540139,2000-09-10,3
40680147,2004-03-08,5
1780198,2000-06-26,3
141371600,2014-05-17,3
81870243,2008-07-05,4
2660299,2000-09-22,3
81130222,2008-04-22,5
113560168,2011-12-22,4
162160640,2016-08-03,13
113610286,2011-12-27,4
71070084,2007-04-17,5
1330240,2000-05-12,3
11250037,2001-05-05,4
102220190,2010-08-10,4
50710416,2005-03-12,4
80980286,2008-04-07,4
1570242,2000-06-05,3
92030254,2009-07-22,5
3270405,2000-11-22,3
42100290,2004-07-28,5
161442625,2016-05-23,4
13280342,2001-11-24,5
1180043,2000-04-27,3
12970191,2001-10-24,9
2270139,2000-08-14,3
160502978,2016-02-19,3
10050367,2001-01-05,3
171222389,2017-05-02,2
2530098,2000-09-09,3
1460228,2000-05-25,6
3130195,2000-11-08,3
2110062,2000-07-29,3
2190211,2000-08-06,3
81130222,2008-04-22,5
2200019,2000-08-07,3
1710258,2000-06-19,3
3440372,2000-12-09,3
10080447,2001-01-08,3
10230339,2001-01-23,3
113560168,2011-12-22,4
72250061,2007-08-13,4
12070369,2001-07-26,4
53430127,2005-12-09,5
1920037,2000-07-10,3
51920383,2005-07-11,12
1070216,2000-04-16,3
1780014,2000-06-26,3
92640221,2009-09-21,3
2410111,2000-08-28,3
1840159,2000-07-02,3
3550295,2000-12-20,3
113540384,2011-12-20,12
33050371,2003-11-01,18
1350177,2000-05-14,3
3290298,2000-11-24,3
2140181,2000-08-01,3
2020109,2000-07-20,3
113560168,2011-12-22,4
40060012,2004-01-06,4
12870091,2001-10-14,4
122470250,2012-09-03,4
3350276,2000-11-30,3
3630005,2000-12-28,3
171483315,2017-05-28,13
2430215,2000-08-30,3
3150248,2000-11-10,3
10070065,2001-01-07,3
91870187,2009-07-06,5
12330307,2001-08-21,4
111580005,2011-06-07,13
1490109,2000-05-28,3
3020069,2000-10-28,3
2890090,2000-10-15,4
10890211,2001-03-30,5
50710416,2005-03-12,4
2530080,2000-09-09,3
10140225,2001-01-14,3
2160182,2000-08-03,3
91010262,2009-04-11,3
2510169,2000-09-07,3
50710416,2005-03-12,4
142502147,2014-09-07,4
2720010,2000-09-28,3
10220275,2001-01-22,3
10200256,2001-01-20,3
22200482,2002-08-08,4
1880086,2000-07-06,3
40720374,2004-03-12,4
3220202,2000-11-17,3
91790306,2009-06-28,2
81870243,2008-07-05,4
61890228,2006-07-08,12
91680215,2009-06-17,3
2950317,2000-10-21,3
1420329,2000-05-21,3
2060054,2000-07-24,3
1800038,2000-06-28,3
1670040,2000-06-15,3
10580209,2001-02-27,5
11250037,2001-05-05,4
1920283,2000-07-10,3
40430425,2004-02-12,3
2700023,2000-09-26,3
40050048,2004-01-05,5
160230436,2016-01-23,3
52270001,2005-08-15,3
1460277,2000-05-25,9
2470308,2000-09-03,3
2710071,2000-09-27,3
2190271,2000-08-06,3
31780034,2003-06-27,2
2600140,2000-09-16,3
160572331,2016-02-26,3
2060053,2000-07-24,3
92040159,2009-07-23,5
102530101,2010-09-10,6
12070369,2001-07-26,4
10140022,2001-01-14,3
3380304,2000-12-03,3
1280136,2000-05-07,3
3410251,2000-12-06,3
60120210,2006-01-12,3
32870196,2003-10-14,4
173481876,2017-12-14,5
143311834,2014-11-27,3
71820188,2007-07-01,4
2300278,2000-08-17,3
3550270,2000-12-20,3
71780027,2007-06-27,4
3000244,2000-10-26,3
2240103,2000-08-11,3
72260285,2007-08-14,4
63040399,2006-10-31,4
33060174,2003-11-02,4
2800296,2000-10-06,3
3630084,2000-12-28,3
20750045,2002-03-16,12
53040389,2005-10-31,3
20560140,2002-02-25,5
141301275,2014-05-10,5
3380054,2000-12-03,3
2710005,2000-09-27,3
1140091,2000-04-23,3
21850384,2002-07-04,5
1190285,2000-04-28,3
143201011,2014-11-16,5
20390330,2002-02-08,5
32830045,2003-10-10,4
1130185,2000-04-22,3
71190016,2007-04-29,4
40350001,2004-02-04,4
91290331,2009-05-09,3
2900007,2000-10-16,3
3380298,2000-12-03,3
21100277,2002-04-20,4
2730218,2000-09-29,3
2170258,2000-08-04,3
21100277,2002-04-20,4
1050363,2000-04-14,3
152524442,2015-09-09,4
1910209,2000-07-09,3
112700246,2011-09-27,4
2800178,2000-10-06,3
10160400,2001-01-16,3
152990290,2015-10-26,13
71190016,2007-04-29,4
53040387,2005-10-31,3
51890022,2005-07-08,4
32790122,2003-10-06,17
1290258,2000-05-08,3
10270273,2001-01-27,3
51890022,2005-07-08,4
1920269,2000-07-10,3
1790109,2000-06-27,3
100490218,2010-02-18,4
72260285,2007-08-14,4
3400061,2000-12-05,4
2600070,2000-09-16,3
10570375,2001-02-26,4
123200016,2012-11-15,4
61170475,2006-04-27,4
3600241,2000-12-25,3
43250055,2004-11-20,4
111170157,2011-04-27,3
2440055,2000-08-31,3
141511006,2014-05-31,27
2770027,2000-10-03,3
112510388,2011-09-08,4
2250230,2000-08-12,3
63040273,2006-10-31,3
1240310,2000-05-03,3
150980245,2015-04-08,13
2600233,2000-09-16,3
10090322,2001-01-09,3
71430270,2007-05-23,4
63280033,2006-11-24,4
3050211,2000-10-31,5
72260285,2007-08-14,4
2860226,2000-10-12,3
1660217,2000-06-14,5
63040377,2006-10-31,3
2630357,2000-09-19,3
3430029,2000-12-08,3
13040397,2001-10-31,12
3100262,2000-11-05,3
1830280,2000-07-01,3
1360319,2000-05-15,3
173341924,2017-11-30,4
152993006,2015-10-26,4
2890266,2000-10-15,3
31160049,2003-04-26,4
53050022,2005-11-01,3
1750170,2000-06-23,3
1420065,2000-05-21,3
3530392,2000-12-18,3
73210395,2007-11-17,3
82410194,2008-08-28,3
2110297,2000-07-29,3
3050211,2000-10-31,5
111970144,2011-07-16,4
51890022,2005-07-08,4
43250055,2004-11-20,4
1330206,2000-05-12,3
2620014,2000-09-18,3
1970251,2000-07-15,3
10080283,2001-01-08,3
1240236,2000-05-03,3
162861663,2016-10-12,4
3310024,2000-11-26,3
40350001,2004-02-04,4
71820188,2007-07-01,4
2270008,2000-08-14,3
40760417,2004-03-16,4
110340051,2011-02-03,4
3370367,2000-12-02,3
141050275,2014-04-15,4
10180026,2001-01-18,3
2390200,2000-08-26,3
2130040,2000-07-31,3
172140247,2017-08-02,12
143573558,2014-12-23,13
112010340,2011-07-20,4
60270208,2006-01-27,8
161120874,2016-04-21,4
52850332,2005-10-12,4
1550177,2000-06-03,5
10030260,2001-01-03,3
1400247,2000-05-19,3
2720136,2000-09-28,3
141760015,2014-06-25,4
63040334,2006-10-31,13
53050030,2005-11-01,3
72540404,2007-09-11,6
1210030,2000-04-30,3
10460047,2001-02-15,4
70110160,2007-01-11,4
172392307,2017-08-27,16
3030023,2000-10-29,3
2950102,2000-10-21,3
1220285,2000-05-01,3
140480302,2014-02-17,4
33040330,2003-10-31,5
112010340,2011-07-20,4
11260146,2001-05-06,4
2820113,2000-10-08,3
1770083,2000-06-25,3
2550274,2000-09-11,3
42290287,2004-08-16,8
2330040,2000-08-20,3
12980436,2001-10-25,9
3410003,2000-12-06,3
1640266,2000-06-12,3
21100277,2002-04-20,4
121650215,2012-06-13,3
11770314,2001-06-26,3
2600028,2000-09-16,3
53040304,2005-10-31,5
2060010,2000-07-24,3
53040375,2005-10-31,3
3380215,2000-12-03,3
10150346,2001-01-15,3
161011269,2016-04-10,4
160633770,2016-03-03,4
80900145,2008-03-30,4
10080117,2001-01-08,3
53040336,2005-10-31,3
143550474,2014-12-21,4
2800187,2000-10-06,3
83050348,2008-10-31,3
2420201,2000-08-29,3
111240172,2011-05-04,4
3480376,2000-12-13,3
63040406,2006-10-31,3
1260123,2000-05-05,3
21920141,2002-07-11,4
3550036,2000-12-20,3
53050010,2005-11-01,3
81240264,2008-05-03,4
72110283,2007-07-30,4
3230039,2000-11-18,3
40490094,2004-02-18,4
141531281,2014-06-02,2
63040364,2006-10-31,3
21690419,2002-06-18,2
53040411,2005-10-31,3
1630092,2000-06-11,3
161120874,2016-04-21,4
10260321,2001-01-26,3
120200149,2012-01-20,4
2330028,2000-08-20,3
91730178,2009-06-22,2
2810178,2000-10-07,3
23290246,2002-11-25,16
10120334,2001-01-12,3
1790054,2000-06-27,4
2590093,2000-09-15,3
43250055,2004-11-20,4
41400327,2004-05-19,4
110340048,2011-02-03,4
2220042,2000-08-09,6
63040379,2006-10-31,3
83050316,2008-10-31,5
161120874,2016-04-21,4
91030329,2009-04-13,4
153132941,2015-11-09,13
1270042,2000-05-06,3
50130175,2005-01-13,4
31500053,2003-05-30,4
53050002,2005-11-01,3
92450366,2009-09-02,4
160253866,2016-01-25,3
10270323,2001-01-27,3
10140089,2001-01-14,3
51890022,2005-07-08,4
2420211,2000-08-29,3
2350269,2000-08-22,3
1930262,2000-07-11,3
3350047,2000-11-30,3
3540121,2000-12-19,3
1680035,2000-06-16,3
10130144,2001-01-13,3
2380017,2000-08-25,3
1850053,2000-07-03,3
3240299,2000-11-19,3
31540199,2003-06-03,4
71540330,2007-06-03,4
51550368,2005-06-04,4
3600285,2000-12-25,3
3240115,2000-11-19,3
3220219,2000-11-17,3
2080281,2000-07-26,3
41490374,2004-05-28,4
1200270,2000-04-29,3
70850016,2007-03-26,12
3110018,2000-11-06,3
1130271,2000-04-22,3
72580254,2007-09-15,25
3580351,2000-12-23,3
1880011,2000-07-06,3
21160009,2002-04-26,13
142250522,2014-08-13,5
1410311,2000-05-20,3
61610072,2006-06-10,4
171000175,2017-04-10,4
3030026,2000-10-29,3
3600202,2000-12-25,3
10030160,2001-01-03,3
1080097,2000-04-17,3
101370162,2010-05-17,8
112900019,2011-10-17,12
1600117,2000-06-08,3
50190366,2005-01-19,5
2790225,2000-10-05,3
161052938,2016-04-14,4
2070013,2000-07-25,3
3190075,2000-11-14,3
10070302,2001-01-07,3
110140332,2011-01-14,4
1270137,2000-05-06,3
1320094,2000-05-11,3
3200094,2000-11-15,3
3350330,2000-11-30,3
1780118,2000-06-26,3
63590030,2006-12-25,4
142471768,2014-09-04,4
142262052,2014-08-14,4
60570001,2006-02-25,4
2540021,2000-09-10,4
2540304,2000-09-10,3
3400268,2000-12-05,3
10280027,2001-01-28,3
2110021,2000-07-29,3
10260395,2001-01-26,3
1990165,2000-07-17,3
2540021,2000-09-10,4
120830275,2012-03-23,5
2500160,2000-09-06,3
142471768,2014-09-04,4
32980411,2003-10-25,13
170463960,2017-02-15,13
172351357,2017-08-23,5
83200231,2008-11-15,25
1520258,2000-05-31,3
82850054,2008-10-11,25
80850130,2008-03-25,5
2610038,2000-09-17,3
101690024,2010-06-18,4
3160045,2000-11-11,3
10010359,2001-01-01,3
101230210,2010-05-03,25
103390324,2010-12-05,5
82870133,2008-10-13,5
1400046,2000-05-19,3
3060261,2000-11-01,3
41880032,2004-07-06,4
3310073,2000-11-26,3
1480074,2000-05-27,3
2530130,2000-09-09,3
12980215,2001-10-25,4
91310363,2009-05-11,4
2280092,2000-08-15,3
152364197,2015-08-24,4
100170344,2010-01-17,4
1340036,2000-05-13,3
52410129,2005-08-29,25
10200264,2001-01-20,3
163220152,2016-11-17,4
81640317,2008-06-12,25
160482787,2016-02-17,2
2310262,2000-08-18,3
2780021,2000-10-04,3
1190115,2000-04-28,4
171470261,2017-05-27,3
123640109,2012-12-29,4
1190115,2000-04-28,4
2530025,2000-09-09,3
40260022,2004-01-26,4
150542492,2015-02-23,5
3120287,2000-11-07,3
1060183,2000-04-15,3
2120033,2000-07-30,3
1940023,2000-07-12,3
2850001,2000-10-11,3
2910198,2000-10-17,3
2590105,2000-09-15,3
3530175,2000-12-18,3
3200251,2000-11-15,3
3300329,2000-11-25,3
180010512,2018-01-01,4
143153413,2014-11-11,13
3630073,2000-12-28,3
2950127,2000-10-21,3
2000232,2000-07-18,3
63050224,2006-11-01,12
131510024,2013-05-31,4
2260061,2000-08-13,3
2410133,2000-08-28,3
81290076,2008-05-08,9
1150181,2000-04-24,3
1780131,2000-06-26,3
2420164,2000-08-29,3
160043404,2016-01-04,4
1540050,2000-06-02,3
2820034,2000-10-08,3
32470166,2003-09-04,3
71300010,2007-05-10,12
53190229,2005-11-15,5
133550169,2013-12-21,16
3080248,2000-11-03,3
152364197,2015-08-24,4
32540320,2003-09-11,4
3530258,2000-12-18,3
110420046,2011-02-11,4
61610072,2006-06-10,4
1710034,2000-06-19,3
12510297,2001-09-08,4
2160247,2000-08-03,3
3300338,2000-11-25,3
112990347,2011-10-26,27
2340066,2000-08-21,3
53190229,2005-11-15,5
51970352,2005-07-16,4
3200136,2000-11-15,3
2170177,2000-08-04,3
22740019,2002-10-01,12
10210029,2001-01-21,3
153090106,2015-11-05,4
3420408,2000-12-07,3
40010417,2004-01-01,4
51940397,2005-07-13,4
2780202,2000-10-04,3
143252411,2014-11-21,5
3470162,2000-12-12,3
173443330,2017-12-10,25
81720425,2008-06-20,25
1640127,2000-06-12,3
2250296,2000-08-12,3
1320147,2000-05-11,3
2380153,2000-08-25,3
3270368,2000-11-22,3
1990004,2000-07-17,3
160570400,2016-02-26,4
3210281,2000-11-16,3
142092715,2014-07-28,4
3090141,2000-11-04,3
1230041,2000-05-02,3
50670296,2005-03-08,5
2470343,2000-09-03,3
1720257,2000-06-20,3
72240236,2007-08-12,4
83210396,2008-11-16,3
12280030,2001-08-16,4
1390096,2000-05-18,3
1450023,2000-05-24,3
130640111,2013-03-05,16
2010022,2000-07-19,3
10170335,2001-01-17,3
3400040,2000-12-05,3
163230288,2016-11-18,13
2740014,2000-09-30,3
160733173,2016-03-13,4
110220047,2011-01-22,4
1880280,2000-07-06,3
1660579,2000-06-14,3
123640109,2012-12-29,4
83000077,2008-10-26,4
80340240,2008-02-03,4
3500267,2000-12-15,3
152123471,2015-07-31,25
1250333,2000-05-04,3
101790061,2010-06-28,4
131510024,2013-05-31,4
152303279,2015-08-18,25
153262781,2015-11-22,4
3300233,2000-11-25,3
33040241,2003-10-31,4
142471768,2014-09-04,4
1880212,2000-07-06,3
3410207,2000-12-06,3
3410082,2000-12-06,3
150331138,2015-02-02,5
122200339,2012-08-07,4
2480050,2000-09-04,3
2530324,2000-09-09,3
102580017,2010-09-15,12
130140278,2013-01-14,4
1250324,2000-05-04,3
1140008,2000-04-23,3
61950238,2006-07-14,5
2170263,2000-08-04,3
133230014,2013-11-19,13
53550274,2005-12-21,5
130080139,2013-01-08,5
10260413,2001-01-26,3
10260459,2001-01-26,3
21170301,2002-04-27,4
3260070,2000-11-21,3
2640281,2000-09-20,3
163192021,2016-11-14,4
52580023,2005-09-15,4
51150084,2005-04-25,27
81640317,2008-06-12,25
92060135,2009-07-25,4
81220090,2008-05-01,8
133450280,2013-12-11,4
40260022,2004-01-26,4
2620033,2000-09-18,3
131740017,2013-06-23,4
153090106,2015-11-05,4
2660114,2000-09-22,3
2750262,2000-10-01,3
10040091,2001-01-04,3
3650222,2000-12-30,3
1660148,2000-06-14,3
63440084,2006-12-10,12
163200178,2016-11-15,2
1800183,2000-06-28,3
1210016,2000-04-30,3
2400062,2000-08-27,3
122390234,2012-08-26,4
1490175,2000-05-28,3
31740014,2003-06-23,4
3520136,2000-12-17,3
1480276,2000-05-27,3
2490078,2000-09-05,3
1620176,2000-06-10,3
82370276,2008-08-24,3
2570137,2000-09-13,3
10040021,2001-01-04,3
142262052,2014-08-14,4
113220040,2011-11-18,4
2720032,2000-09-28,3
53550274,2005-12-21,5
43100367,2004-11-05,5
81210215,2008-04-30,4
51050267,2005-04-15,5
1660579,2000-06-14,3
131510024,2013-05-31,4
3310026,2000-11-26,3
2330191,2000-08-20,3
32490248,2003-09-06,5
3250028,2000-11-20,3
123020365,2012-10-28,13
83200229,2008-11-15,25
81630136,2008-06-11,25
2740072,2000-09-30,3
3490232,2000-12-14,3
2560112,2000-09-12,3
131510024,2013-05-31,4
10190047,2001-01-19,3
2980026,2000-10-24,3
81460277,2008-05-25,3
160733173,2016-03-13,4
131390034,2013-05-19,4
21630213,2002-06-12,9
1970112,2000-07-15,3
2620289,2000-09-18,3
2360252,2000-08-23,3
3480364,2000-12-13,3
12280030,2001-08-16,4
1720298,2000-06-20,3
2650291,2000-09-21,3
1940241,2000-07-12,3
10120012,2001-01-12,3
10080455,2001-01-08,3
1940327,2000-07-12,3
1480002,2000-05-27,4
3510043,2000-12-16,3
82850054,2008-10-11,25
2830246,2000-10-09,3
2250220,2000-08-12,3
10130018,2001-01-13,3
3640295,2000-12-29,3
2640043,2000-09-20,3
53610124,2005-12-27,4
1590243,2000-06-07,3
172454071,2017-09-02,3
162140472,2016-08-01,13
3540028,2000-12-19,3
61610230,2006-06-10,5
2440310,2000-08-31,3
80040620,2008-01-04,4
2250240,2000-08-12,3
172430203,2017-08-31,25
1990249,2000-07-17,3
63260146,2006-11-22,4
30150140,2003-01-15,2
3460311,2000-12-11,3
153212541,2015-11-17,5
51410072,2005-05-21,27
2590296,2000-09-15,3
150283120,2015-01-28,4
71760208,2007-06-25,25
2640245,2000-09-20,3
1280318,2000-05-07,3
10260342,2001-01-26,3
3010222,2000-10-27,3
131390034,2013-05-19,4
102490004,2010-09-06,12
1210275,2000-04-30,3
112810286,2011-10-08,5
150283120,2015-01-28,4
142142497,2014-08-02,25
2570239,2000-09-13,3
2930062,2000-10-19,3
2210011,2000-08-08,3
32540320,2003-09-11,4
161852118,2016-07-03,5
1580204,2000-06-06,3
20740027,2002-03-15,4
43560048,2004-12-21,4
173333364,2017-11-29,4
3360180,2000-12-01,3
2660145,2000-09-22,3
82870262,2008-10-13,25
3400027,2000-12-05,3
1060272,2000-04-15,3
2850133,2000-10-11,3
2740238,2000-09-30,3
1450247,2000-05-24,3
51010097,2005-04-11,27
90170155,2009-01-17,3
21640031,2002-06-13,4
30800230,2003-03-21,6
12280030,2001-08-16,4
3120188,2000-11-07,3
2190201,2000-08-06,3
2750265,2000-10-01,3
2590264,2000-09-15,3
160220973,2016-01-22,5
171994083,2017-07-18,25
3150246,2000-11-10,3
1980123,2000-07-16,3
73280142,2007-11-24,25
3530116,2000-12-18,3
1130115,2000-04-22,3
162901587,2016-10-16,4
12280124,2001-08-16,4
10140140,2001-01-14,3
1420391,2000-05-21,3
62580073,2006-09-15,25
122040118,2012-07-22,3
2340048,2000-08-21,3
1860033,2000-07-04,3
150283120,2015-01-28,4
3410023,2000-12-06,3
102260259,2010-08-14,4
161440486,2016-05-23,13
51650333,2005-06-14,4
1440069,2000-05-23,3
110420046,2011-02-11,4
2660168,2000-09-22,3
3490309,2000-12-14,3
160733173,2016-03-13,4
2290020,2000-08-16,4
2430230,2000-08-30,3
1960096,2000-07-14,3
161410837,2016-05-20,4
2960221,2000-10-22,3
2480041,2000-09-04,3
2480113,2000-09-04,3
111330415,2011-05-13,4
141760259,2014-06-25,3
1140054,2000-04-23,3
3550239,2000-12-20,13
2900056,2000-10-16,3
103010356,2010-10-28,3
2730110,2000-09-29,3
32220041,2003-08-10,13
1200293,2000-04-29,5
3050004,2000-10-31,3
2350211,2000-08-22,3
103130203,2010-11-09,5
62750236,2006-10-02,4
142332946,2014-08-21,11
92330043,2009-08-21,5
51000249,2005-04-10,13
42140281,2004-08-01,13
2320097,2000-08-19,3
111800134,2011-06-29,11
173394336,2017-12-05,13
142753773,2014-10-02,4
112030381,2011-07-22,11
121780232,2012-06-26,13
63000147,2006-10-27,8
30120012,2003-01-12,4
31990207,2003-07-18,13
121040263,2012-04-13,11
51450390,2005-05-25,13
81010241,2008-04-10,5
1630085,2000-06-11,3
32650245,2003-09-22,13
2430160,2000-08-30,3
131940164,2013-07-13,11
3590190,2000-12-24,3
102840248,2010-10-11,29
170841524,2017-03-25,4
161952797,2016-07-13,13
2570222,2000-09-13,3
3580003,2000-12-23,4
2820183,2000-10-08,3
1930144,2000-07-11,13
71910157,2007-07-10,5
2130207,2000-07-31,13
71210086,2007-05-01,0
131810417,2013-06-30,11
81340288,2008-05-13,13
143173126,2014-11-13,4
3580207,2000-12-23,3
33220316,2003-11-18,9
3440066,2000-12-09,3
33250283,2003-11-21,3
2500233,2000-09-06,3
81490092,2008-05-28,5
140710080,2014-03-12,4
102830382,2010-10-10,13
142671630,2014-09-24,4
130750399,2013-03-16,13
41780109,2004-06-26,3
11730010,2001-06-22,4
170043452,2017-01-04,4
10210046,2001-01-21,13
2820059,2000-10-08,3
103010270,2010-10-28,5
21880236,2002-07-07,13
161122216,2016-04-21,13
111760248,2011-06-25,13
2250198,2000-08-12,3
22730042,2002-09-30,13
100300260,2010-01-30,13
152622464,2015-09-19,11
3370005,2000-12-02,3
13070281,2001-11-03,9
142872568,2014-10-14,11
60680296,2006-03-09,13
131940164,2013-07-13,11
170700554,2017-03-11,13
83520089,2008-12-17,4
2530234,2000-09-09,3
171153277,2017-04-25,4
112160106,2011-08-04,22
162190791,2016-08-06,13
40330112,2004-02-02,5
121040263,2012-04-13,11
70700016,2007-03-11,4
171803312,2017-06-29,13
2780208,2000-10-04,3
131160142,2013-04-26,11
132910255,2013-10-18,4
103130203,2010-11-09,5
143104212,2014-11-06,13
142312159,2014-08-19,4
3320415,2000-11-27,3
10100037,2001-01-10,3
103010270,2010-10-28,5
1280155,2000-05-07,3
111840159,2011-07-03,4
3570360,2000-12-22,3
43410309,2004-12-06,4
61000220,2006-04-10,11
11290201,2001-05-09,14
12180406,2001-08-06,13
2890047,2000-10-15,3
2520313,2000-09-08,3
130520143,2013-02-21,3
42030370,2004-07-21,4
142810454,2014-10-08,11
3360405,2000-12-01,3
53160214,2005-11-12,13
61620159,2006-06-11,3
33030015,2003-10-30,13
73570157,2007-12-23,11
140740147,2014-03-15,26
2530261,2000-09-09,3
51740246,2005-06-23,13
51850190,2005-07-04,8
70760176,2007-03-17,29
73610306,2007-12-27,3
3210255,2000-11-16,3
53310254,2005-11-27,13
52390326,2005-08-27,4
100810180,2010-03-22,13
152622464,2015-09-19,11
71670148,2007-06-16,4
50940255,2005-04-04,9
61160141,2006-04-26,4
91690280,2009-06-18,9
130230102,2013-01-23,5
2180001,2000-08-04,3
10060074,2001-01-06,3
43190159,2004-11-14,13
122980203,2012-10-24,3
43420097,2004-12-07,5
3170048,2000-11-12,3
141110331,2014-04-21,11
11230165,2001-05-03,4
2300016,2000-08-17,3
130510242,2013-02-20,13
133380309,2013-12-04,13
61580341,2006-06-07,26
1080258,2000-04-17,3
50990250,2005-04-09,13
92420120,2009-08-30,12
2830028,2000-10-09,3
3250226,2000-11-20,3
71910157,2007-07-10,5
3390386,2000-12-04,3
3440039,2000-12-09,3
10800349,2001-03-21,4
91860289,2009-07-05,13
71910157,2007-07-10,5
161711871,2016-06-19,11
41010243,2004-04-10,13
52770424,2005-10-04,4
3530131,2000-12-18,3
150093054,2015-01-09,13
103050476,2010-11-01,5
140980161,2014-04-08,29
21330051,2002-05-13,20
1790148,2000-06-27,3
140700278,2014-03-11,4
121810301,2012-06-29,13
140980161,2014-04-08,29
41940079,2004-07-12,13
12630141,2001-09-20,9
130810142,2013-03-22,3
2380042,2000-08-25,3
111730281,2011-06-22,13
142432036,2014-08-31,11
3440421,2000-12-09,3
1840136,2000-07-02,3
113500328,2011-12-16,2
1860226,2000-07-04,5
3480037,2000-12-13,3
133130113,2013-11-09,11
3210294,2000-11-16,3
140980161,2014-04-08,29
72410158,2007-08-29,8
162172667,2016-08-04,11
130360364,2013-02-05,13
2240068,2000-08-11,3
42210259,2004-08-08,13
40590398,2004-02-28,13
173062381,2017-11-02,5
11230165,2001-05-03,4
162050786,2016-07-23,13
20180336,2002-01-18,13
142111430,2014-07-30,3
112900372,2011-10-17,4
163290438,2016-11-24,13
133190376,2013-11-15,13
12900378,2001-10-17,13
3440415,2000-12-09,3
51800292,2005-06-29,27
91800136,2009-06-29,5
53600146,2005-12-26,13
113580253,2011-12-24,11
121040263,2012-04-13,11
61000220,2006-04-10,11
131810417,2013-06-30,11
2630009,2000-09-19,3
171750852,2017-06-24,11
143423108,2014-12-08,13
71910157,2007-07-10,5
172822424,2017-10-09,2
131810344,2013-06-30,11
120860064,2012-03-26,3
61520121,2006-06-01,13
2170033,2000-08-04,3
1210302,2000-04-30,3
31750404,2003-06-24,13
131250245,2013-05-05,29
130990396,2013-04-09,4
82870012,2008-10-13,4
1140063,2000-04-23,3
63510310,2006-12-17,4
32770025,2003-10-04,13
3570318,2000-12-22,3
93200286,2009-11-16,13
103000223,2010-10-27,5
141240327,2014-05-04,4
132700221,2013-09-27,4
32330409,2003-08-21,13
141961639,2014-07-15,11
142022003,2014-07-21,5
1450270,2000-05-24,3
60840274,2006-03-25,13
111800281,2011-06-29,14
141110331,2014-04-21,11
140700278,2014-03-11,4
32050365,2003-07-24,2
1290227,2000-05-08,3
82770086,2008-10-03,4
1290268,2000-05-08,3
103010350,2010-10-28,3
62750236,2006-10-02,4
41410222,2004-05-20,4
1270004,2000-05-06,3
1880091,2000-07-06,3
141990403,2014-07-18,4
170742796,2017-03-15,5
70470133,2007-02-16,27
70840172,2007-03-25,4
3300051,2000-11-25,3
12960294,2001-10-23,4
21190208,2002-04-29,4
152182583,2015-08-06,8
32740088,2003-10-01,4
1980034,2000-07-16,3
141400272,2014-05-20,12
1240118,2000-05-03,3
162953309,2016-10-21,13
2780221,2000-10-04,3
31750362,2003-06-24,12
13160151,2001-11-12,6
32440253,2003-09-01,12
112520105,2011-09-09,4
22700004,2002-09-27,4
21410340,2002-05-21,3
81710068,2008-06-19,4
10200075,2001-01-20,3
3570355,2000-12-22,3
162752696,2016-10-01,4
1880278,2000-07-06,3
21580357,2002-06-07,4
3250012,2000-11-20,3
91270186,2009-05-07,8
32730181,2003-09-30,3
1400028,2000-05-19,4
3000192,2000-10-26,3
2710130,2000-09-27,4
43640066,2004-12-29,4
103230124,2010-11-19,5
70120268,2007-01-12,4
1830045,2000-07-01,3
141902171,2014-07-09,4
50700428,2005-03-11,4
121320175,2012-05-11,12
51220247,2005-05-02,27
2580279,2000-09-14,3
1910226,2000-07-09,3
173653257,2017-12-31,3
172014465,2017-07-20,13
42080120,2004-07-26,5
71820305,2007-07-01,3
2480169,2000-09-04,3
53530306,2005-12-19,3
32570392,2003-09-14,12
82430100,2008-08-30,6
171693319,2017-06-18,4
80420286,2008-02-11,3
50720226,2005-03-13,6
1380081,2000-05-17,3
1120235,2000-04-21,3
50570374,2005-02-26,4
32730397,2003-09-30,4
31670330,2003-06-16,12
140550149,2014-02-24,4
161212478,2016-04-30,5
81510142,2008-05-30,5
10230043,2001-01-23,3
50700428,2005-03-11,4
81460274,2008-05-25,3
83000335,2008-10-26,4
2570232,2000-09-13,3
63630216,2006-12-29,8
1470086,2000-05-26,3
2900028,2000-10-16,3
30350302,2003-02-04,5
111080006,2011-04-18,12
52720191,2005-09-29,27
151100371,2015-04-20,4
23180216,2002-11-14,4
50700428,2005-03-11,4
3320338,2000-11-27,3
61920174,2006-07-11,4
32530415,2003-09-10,6
30320250,2003-02-01,3
41480005,2004-05-27,13
81710068,2008-06-19,4
11520066,2001-06-01,4
23610305,2002-12-27,3
2160181,2000-08-03,3
91050281,2009-04-15,4
10240178,2001-01-24,3
111950234,2011-07-14,4
171940305,2017-07-13,4
3110039,2000-11-06,3
1460026,2000-05-25,3
122390100,2012-08-26,4
90270233,2009-01-27,8
20050209,2002-01-05,4
3640045,2000-12-29,3
143452331,2014-12-11,6
20050209,2002-01-05,4
12220260,2001-08-10,4
3150166,2000-11-10,3
30910158,2003-04-01,4
20050209,2002-01-05,4
1650295,2000-06-13,3
22280232,2002-08-16,4
111030137,2011-04-13,9
1640274,2000-06-12,3
72700268,2007-09-27,4
1690007,2000-06-17,3
31690157,2003-06-18,4
90270233,2009-01-27,8
3440327,2000-12-09,3
53440281,2005-12-10,4
10050086,2001-01-05,4
21200163,2002-04-30,5
1630005,2000-06-11,3
21620124,2002-06-11,4
12220260,2001-08-10,4
21040208,2002-04-14,4
163151963,2016-11-10,5
1520189,2000-05-31,3
11370182,2001-05-17,5
3500003,2000-12-15,3
2710137,2000-09-27,3
41740315,2004-06-22,4
11520066,2001-06-01,4
3580054,2000-12-23,4
11520066,2001-06-01,4
1670243,2000-06-15,3
12220260,2001-08-10,4
2760140,2000-10-02,3
1120115,2000-04-21,3
3320013,2000-11-27,3
3220125,2000-11-17,3
50900361,2005-03-31,4
31690157,2003-06-18,4
70190031,2007-01-19,4
152880175,2015-10-15,5
33050332,2003-11-01,6
10160028,2001-01-16,3
120160333,2012-01-16,0
53440281,2005-12-10,4
31250184,2003-05-05,4
43620353,2004-12-27,4
2600143,2000-09-16,3
140360111,2014-02-05,5
70140275,2007-01-14,4
41740315,2004-06-22,4
11370191,2001-05-17,5
3050068,2000-10-31,3
31410411,2003-05-21,4
101240257,2010-05-04,3
70160099,2007-01-16,9
3530236,2000-12-18,3
70480020,2007-02-17,4
20400401,2002-02-09,4
72930187,2007-10-20,8
70480020,2007-02-17,4
50900361,2005-03-31,4
133050184,2013-11-01,5
133270252,2013-11-23,4
11520066,2001-06-01,4
30910158,2003-04-01,4
10050086,2001-01-05,4
1510034,2000-05-30,6
150981668,2015-04-08,4
2650273,2000-09-21,3
53120008,2005-11-08,4
30470359,2003-02-16,13
72650061,2007-09-22,4
1240211,2000-05-03,3
22310002,2002-08-19,4
152801173,2015-10-07,10
133010207,2013-10-28,4
2950016,2000-10-21,3
81300099,2008-05-09,2
60490188,2006-02-18,4
2000029,2000-07-18,3
50770079,2005-03-18,4
50150293,2005-01-15,4
1660446,2000-06-14,4
2230253,2000-08-10,3
123420080,2012-12-07,4
170750271,2017-03-16,13
2040094,2000-07-22,3
163273783,2016-11-22,13
1570214,2000-06-05,3
2540081,2000-09-10,3
132840017,2013-10-11,13
1730048,2000-06-21,3
1670212,2000-06-15,3
10200271,2001-01-20,3
123550025,2012-12-20,4
123020388,2012-10-28,13
1360116,2000-05-15,3
1410053,2000-05-20,3
10170268,2001-01-17,3
3230219,2000-11-18,6
60490188,2006-02-18,4
1840242,2000-07-02,3
33500377,2003-12-16,5
3090217,2000-11-04,3
3400365,2000-12-05,3
111380307,2011-05-18,4
80770292,2008-03-17,4
162191029,2016-08-06,4
62700341,2006-09-27,3
1360033,2000-05-15,3
160762634,2016-03-16,4
10030002,2001-01-03,3
2480073,2000-09-04,3
122400233,2012-08-27,4
93540177,2009-12-20,4
22310002,2002-08-19,4
3350043,2000-11-30,3
3520301,2000-12-17,3
12310287,2001-08-19,4
3480123,2000-12-13,15
2070094,2000-07-25,3
2670295,2000-09-23,3
41790095,2004-06-27,4
122050066,2012-07-23,4
12550106,2001-09-12,4
2760119,2000-10-02,3
10110113,2001-01-11,3
1380101,2000-05-17,3
1140194,2000-04-23,3
1990198,2000-07-17,3
133010207,2013-10-28,4
140800323,2014-03-21,19
133010207,2013-10-28,4
3260294,2000-11-21,3
170593804,2017-02-28,3
1650309,2000-06-13,3
1190356,2000-04-28,3
113350041,2011-12-01,4
161131031,2016-04-22,4
51190279,2005-04-29,18
2890282,2000-10-15,3
2070088,2000-07-25,3
40410141,2004-02-10,4
3270015,2000-11-22,3
2840040,2000-10-10,3
1040244,2000-04-13,3
122500008,2012-09-06,4
2500267,2000-09-06,3
161882000,2016-07-06,8
1220282,2000-05-01,3
1980280,2000-07-16,3
2430145,2000-08-30,3
112530285,2011-09-10,4
2230253,2000-08-10,3
1060136,2000-04-15,4
3350243,2000-11-30,5
101930199,2010-07-12,13
122400233,2012-08-27,4
63040390,2006-10-31,4
2130005,2000-07-31,3
12550106,2001-09-12,4
52380308,2005-08-26,4
120870275,2012-03-27,4
122630130,2012-09-19,4
162191029,2016-08-06,4
130350226,2013-02-04,4
1990062,2000-07-17,3
2230234,2000-08-10,3
32550060,2003-09-12,4
2580125,2000-09-14,3
112530285,2011-09-10,4
62810369,2006-10-08,13
70500169,2007-02-19,4
10070363,2001-01-07,3
122860022,2012-10-12,4
11780205,2001-06-27,4
132170008,2013-08-05,4
161882000,2016-07-06,8
152750286,2015-10-02,4
10030312,2001-01-03,3
2220288,2000-08-09,3
62490243,2006-09-06,4
3060152,2000-11-01,3
2750016,2000-10-01,3
1340021,2000-05-13,3
3640214,2000-12-29,3
2180140,2000-08-05,3
10250097,2001-01-25,3
123630286,2012-12-28,4
1270276,2000-05-06,3
1550245,2000-06-03,3
160030475,2016-01-03,13
1570291,2000-06-05,3
1970007,2000-07-15,3
2350079,2000-08-22,3
1320001,2000-05-11,3
3390046,2000-12-04,3
2120164,2000-07-30,3
2260169,2000-08-13,3
52990195,2005-10-26,2
30170407,2003-01-17,4
12800014,2001-10-07,4
160490311,2016-02-18,13
13030057,2001-10-30,4
10640377,2001-03-05,5
150910284,2015-04-01,13
12050042,2001-07-24,9
92120156,2009-07-31,16
172791060,2017-10-06,9
2120264,2000-07-30,3
132090012,2013-07-28,4
82870284,2008-10-13,17
93560044,2009-12-22,4
3000254,2000-10-26,4
10140224,2001-01-14,3
93560044,2009-12-22,4
52760277,2005-10-03,8
170932955,2017-04-03,4
2120044,2000-07-30,3
22170332,2002-08-05,18
1900111,2000-07-08,3
13040346,2001-10-31,9
13030057,2001-10-30,4
12530087,2001-09-10,4
2790043,2000-10-05,4
3250285,2000-11-20,3
91060035,2009-04-16,5
10050140,2001-01-05,3
42040064,2004-07-22,14
52370299,2005-08-25,4
10150021,2001-01-15,3
13030057,2001-10-30,4
12520074,2001-09-09,4
60380099,2006-02-07,5
2890190,2000-10-15,3
1420139,2000-05-21,3
12430273,2001-08-31,4
171063142,2017-04-16,15
2920011,2000-10-18,3
40240334,2004-01-24,3
92420185,2009-08-30,4
12950247,2001-10-22,5
30170407,2003-01-17,4
91300043,2009-05-10,4
40790074,2004-03-19,4
10070139,2001-01-07,3
3580226,2000-12-23,3
2790043,2000-10-05,4
82400124,2008-08-27,5
2310234,2000-08-18,3
20680228,2002-03-09,4
10170025,2001-01-17,3
2750087,2000-10-01,3
23200192,2002-11-16,3
21480085,2002-05-28,4
142551309,2014-09-12,27
32170319,2003-08-05,4
13030057,2001-10-30,4
91560347,2009-06-05,5
153441900,2015-12-10,5
173131205,2017-11-09,4
160363743,2016-02-05,3
143542375,2014-12-20,2
161560588,2016-06-04,13
3410079,2000-12-06,3
2570256,2000-09-13,3
103110033,2010-11-07,8
111820300,2011-07-01,11
160303313,2016-01-30,3
92660248,2009-09-23,5
141050042,2014-04-15,13
40530068,2004-02-22,4
170432149,2017-02-12,11
71560091,2007-06-05,15
70580030,2007-02-27,2
82660341,2008-09-22,6
141453446,2014-05-25,13
152223091,2015-08-10,13
160571269,2016-02-26,13
2140100,2000-08-01,4
160373218,2016-02-06,13
170612107,2017-03-02,11
132060310,2013-07-25,11
50410442,2005-02-10,6
10150071,2001-01-15,3
60800109,2006-03-21,4
150363555,2015-02-05,11
10350066,2001-02-04,4
173512150,2017-12-17,5
1800115,2000-06-28,3
30010026,2003-01-01,3
160342661,2016-02-03,4
160312626,2016-01-31,3
2740157,2000-09-30,13
13380413,2001-12-04,13
2630025,2000-09-19,3
121370229,2012-05-16,4
11650380,2001-06-14,13
52960112,2005-10-23,5
63650357,2006-12-31,4
50690296,2005-03-10,21
1700117,2000-06-18,3
63350233,2006-12-01,11
150531640,2015-02-22,11
11550033,2001-06-04,11
112180062,2011-08-06,3
81070355,2008-04-16,11
31530131,2003-06-02,4
3540350,2000-12-19,3
160911901,2016-03-31,13
61570357,2006-06-06,4
1680317,2000-06-16,3
172990362,2017-10-26,13
52420302,2005-08-30,4
180211077,2018-01-21,11
151051735,2015-04-15,13
160361987,2016-02-05,3
2160278,2000-08-03,3
52310152,2005-08-19,4
2520137,2000-09-08,3
42100033,2004-07-28,4
1340223,2000-05-13,3
143203194,2014-11-16,4
2440253,2000-08-31,13
12330220,2001-08-21,13
43270356,2004-11-22,4
142112344,2014-07-30,13
40920114,2004-04-01,5
60210273,2006-01-21,11
53330155,2005-11-29,3
2740174,2000-09-30,3
120010030,2012-01-01,3
2420100,2000-08-29,13
2160122,2000-08-03,3
3350292,2000-11-30,3
151541211,2015-06-03,13
172533900,2017-09-10,13
1100210,2000-04-19,3
160371580,2016-02-06,3
2280174,2000-08-15,4
2740196,2000-09-30,3
12230305,2001-08-11,4
12910181,2001-10-18,9
150010134,2015-01-01,3
91830016,2009-07-02,11
160372623,2016-02-06,3
151601767,2015-06-09,13
80040484,2008-01-04,5
170432149,2017-02-12,11
151032286,2015-04-13,4
142821835,2014-10-09,11
140010014,2014-01-01,3
2550038,2000-09-11,3
81080289,2008-04-17,2
92680073,2009-09-25,4
2760068,2000-10-02,4
60760231,2006-03-17,13
21110067,2002-04-21,5
41600334,2004-06-08,16
153653181,2015-12-31,3
61610337,2006-06-10,13
132400037,2013-08-28,13
3000113,2000-10-26,3
160332671,2016-02-02,3
172203598,2017-08-08,11
2880181,2000-10-14,3
131060174,2013-04-16,4
2130173,2000-07-31,3
91200334,2009-04-30,13
111560368,2011-06-05,3
170422905,2017-02-11,3
123110095,2012-11-06,13
160363730,2016-02-05,3
52930103,2005-10-20,11
31940051,2003-07-13,15
2400108,2000-08-27,3
10930280,2001-04-03,13
3500107,2000-12-15,3
133500278,2013-12-16,9
53030161,2005-10-30,4
160372761,2016-02-06,3
170420736,2017-02-11,11
70660140,2007-03-07,13
3600218,2000-12-25,13
2500298,2000-09-06,3
113130087,2011-11-09,5
91400432,2009-05-20,2
162002205,2016-07-18,13
152513111,2015-09-08,4
3550279,2000-12-20,3
43660291,2004-12-31,13
12240226,2001-08-12,13
10240057,2001-01-24,3
111280324,2011-05-08,2
2280174,2000-08-15,4
1250049,2000-05-04,3
30490048,2003-02-18,4
140010065,2014-01-01,3
1410218,2000-05-20,3
141402490,2014-05-20,4
131120440,2013-04-22,4
2950139,2000-10-21,3
1180131,2000-04-27,3
132760327,2013-10-03,11
131600049,2013-06-09,15
2200230,2000-08-07,4
52310152,2005-08-19,4
20150277,2002-01-15,4
10210314,2001-01-21,3
42280298,2004-08-15,13
11220284,2001-05-02,2
160452514,2016-02-14,13
10010072,2001-01-01,3
121410341,2012-05-20,11
41930045,2004-07-11,5
2370058,2000-08-24,3
10190339,2001-01-19,13
171112909,2017-04-21,2
120010015,2012-01-01,11
110120374,2011-01-12,11
22450176,2002-09-02,4
152483086,2015-09-05,13
103230008,2010-11-19,11
12900341,2001-10-17,4
1280120,2000-05-07,3
102430035,2010-08-31,13
152710594,2015-09-28,11
160332401,2016-02-02,3
3040148,2000-10-30,3
2980011,2000-10-24,3
11300156,2001-05-10,4
1510205,2000-05-30,4
111640039,2011-06-13,5
1830130,2000-07-01,13
1100134,2000-04-19,3
151381422,2015-05-18,8
81450154,2008-05-24,4
33390173,2003-12-05,9
160373709,2016-02-06,3
2490073,2000-09-05,3
3360260,2000-12-01,5
1380129,2000-05-17,3
152593698,2015-09-16,13
142552014,2014-09-12,13
3490372,2000-12-14,3
22910061,2002-10-18,9
2650015,2000-09-21,3
1170185,2000-04-26,3
12980084,2001-10-25,9
2330285,2000-08-20,3
22020291,2002-07-21,13
1190345,2000-04-28,4
1550134,2000-06-03,3
120810025,2012-03-21,13
160372799,2016-02-06,3
170612107,2017-03-02,11
152782138,2015-10-05,13
2120025,2000-07-30,3
122250097,2012-08-12,5
31880182,2003-07-07,13
63650328,2006-12-31,3
30600354,2003-03-01,4
171311873,2017-05-11,11
41930045,2004-07-11,5
20750070,2002-03-16,4
12940265,2001-10-21,4
160010341,2016-01-01,3
120100171,2012-01-10,2
12110234,2001-07-30,5
1820174,2000-06-30,3
160373969,2016-02-06,3
60210238,2006-01-21,15
12950306,2001-10-22,4
53190440,2005-11-15,13
10050007,2001-01-05,3
22320406,2002-08-20,2
12890450,2001-10-16,9
21740092,2002-06-23,13
1380300,2000-05-17,4
80850060,2008-03-25,4
22990092,2002-10-26,4
111980291,2011-07-17,16
131500047,2013-05-30,13
160372583,2016-02-06,3
71610080,2007-06-10,4
12600206,2001-09-17,13
2560087,2000-09-12,4
170420736,2017-02-11,11
2890122,2000-10-15,3
143041370,2014-10-31,3
61360405,2006-05-16,13
120010047,2012-01-01,3
1070056,2000-04-16,3
152710594,2015-09-28,11
2390039,2000-08-26,4
92680073,2009-09-25,4
142482648,2014-09-05,13
151550955,2015-06-04,11
111960032,2011-07-15,13
171500409,2017-05-30,11
42060096,2004-07-24,4
10350066,2001-02-04,4
73430067,2007-12-09,15
110820112,2011-03-23,9
71290232,2007-05-09,2
12950264,2001-10-22,9
3620355,2000-12-27,4
81120302,2008-04-21,4
2810002,2000-10-07,3
131620203,2013-06-11,9
40090026,2004-01-09,13
3000052,2000-10-26,3
151800127,2015-06-29,9
160332358,2016-02-02,3
51760056,2005-06-25,4
122250097,2012-08-12,5
10830325,2001-03-24,4
70010011,2007-01-01,3
52930103,2005-10-20,11
